Day One
…
Use select() to select columns

If we want to, we could just select one of the columns using the select() function. Below we are just selecing the column entitled manufacturer.

mpg %>%
  select(manufacturer)

## # A tibble: 234 x 1
##    manufacturer
##    <chr>       
##  1 audi        
##  2 audi        
##  3 audi        
##  4 audi        
##  5 audi        
##  6 audi        
##  7 audi        
##  8 audi        
##  9 audi        
## 10 audi        
## #  with 224 more rows
…
Note, we use the operator == which means is equal to. This is a logical operator - other logical operators include less than <, greater than >, less than or equal to <=, greater then or equal to >=, and is not equal to !=.

We can also filter using a combination of possibilities via logical OR | or logical AND &. The first code chunk below filters the dataset for cases where the manufacturer is honda OR toyota.

mpg %>%
  filter(manufacturer == "honda" | manufacturer == "toyota")

## # A tibble: 43 x 11
##    manufacturer model   displ  year   cyl trans   drv     cty   hwy fl    class 
##    <chr>        <chr>   <dbl> <int> <int> <chr>   <chr> <int> <int> <chr> <chr> 
##  1 honda        civic     1.6  1999     4 manual f        28    33 r     subco
##  2 honda        civic     1.6  1999     4 auto(l f        24    32 r     subco
##  3 honda        civic     1.6  1999     4 manual f        25    32 r     subco
##  4 honda        civic     1.6  1999     4 manual f        23    29 p     subco
##  5 honda        civic     1.6  1999     4 auto(l f        24    32 r     subco
##  6 honda        civic     1.8  2008     4 manual f        26    34 r     subco
##  7 honda        civic     1.8  2008     4 auto(l f        25    36 r     subco
##  8 honda        civic     1.8  2008     4 auto(l f        24    36 c     subco
##  9 honda        civic     2    2008     4 manual f        21    29 p     subco
## 10 toyota       4runne   2.7  1999     4 manual 4        15    20 r     suv   
## #  with 33 more rows
…
## # A tibble: 1 x 1
##       n
##   <int>
## 1    15

Tidying up a dataset

Tidying variable names

At the moment, the car manufacturer names are all in lower case. It would look a lot nicer if they were in title case (i.e., with capitalisation on the first letter of each word). We can use the mutate() function to create a new column - this time, the name of the new column is also the name of the old column that were wanting to modify using the function str_to_title(). What this will do is overwrite the column manufacturer and replace it with the new version with the car manufacturer names in title case.

mpg %>%
  mutate(manufacturer = str_to_title(manufacturer)) 

## # A tibble: 234 x 11
##    manufacturer model    displ  year   cyl trans   drv     cty   hwy fl    class
##    <chr>        <chr>    <dbl> <int> <int> <chr>   <chr> <int> <int> <chr> <chr>
##  1 Audi         a4         1.8  1999     4 auto(l f        18    29 p     comp
##  2 Audi         a4         1.8  1999     4 manual f        21    29 p     comp
##  3 Audi         a4         2    2008     4 manual f        20    31 p     comp
##  4 Audi         a4         2    2008     4 auto(a f        21    30 p     comp
##  5 Audi         a4         2.8  1999     6 auto(l f        16    26 p     comp
##  6 Audi         a4         2.8  1999     6 manual f        18    26 p     comp
##  7 Audi         a4         3.1  2008     6 auto(a f        18    27 p     comp
##  8 Audi         a4 quat   1.8  1999     4 manual 4        18    26 p     comp
##  9 Audi         a4 quat   1.8  1999     4 auto(l 4        16    25 p     comp
## 10 Audi         a4 quat   2    2008     4 manual 4        20    28 p     comp
## #  with 224 more rows

The column model is also lowercase. Lets make that title case too. We can use the mutate() function to work over more than one column at the same time like this:

mpg %>%
  mutate(manufacturer = str_to_title(manufacturer), model = str_to_title(model))

## # A tibble: 234 x 11
##    manufacturer model    displ  year   cyl trans   drv     cty   hwy fl    class
##    <chr>        <chr>    <dbl> <int> <int> <chr>   <chr> <int> <int> <chr> <chr>
##  1 Audi         A4         1.8  1999     4 auto(l f        18    29 p     comp
##  2 Audi         A4         1.8  1999     4 manual f        21    29 p     comp
##  3 Audi         A4         2    2008     4 manual f        20    31 p     comp
##  4 Audi         A4         2    2008     4 auto(a f        21    30 p     comp
##  5 Audi         A4         2.8  1999     6 auto(l f        16    26 p     comp
##  6 Audi         A4         2.8  1999     6 manual f        18    26 p     comp
##  7 Audi         A4         3.1  2008     6 auto(a f        18    27 p     comp
##  8 Audi         A4 Quat   1.8  1999     4 manual 4        18    26 p     comp
##  9 Audi         A4 Quat   1.8  1999     4 auto(l 4        16    25 p     comp
## 10 Audi         A4 Quat   2    2008     4 manual 4        20    28 p     comp
## #  with 224 more rows

There are quite a few columns there, so how about we select just the manufacturer, model, year, transmission, and hwy columns:

mpg %>%
  mutate(manufacturer = str_to_title(manufacturer), model = str_to_title(model)) %>%
  select(manufacturer, model, year, trans, hwy)

## # A tibble: 234 x 5
##    manufacturer model       year trans        hwy
##    <chr>        <chr>      <int> <chr>      <int>
##  1 Audi         A4          1999 auto(l5)      29
##  2 Audi         A4          1999 manual(m5)    29
##  3 Audi         A4          2008 manual(m6)    31
##  4 Audi         A4          2008 auto(av)      30
##  5 Audi         A4          1999 auto(l5)      26
##  6 Audi         A4          1999 manual(m5)    26
##  7 Audi         A4          2008 auto(av)      27
##  8 Audi         A4 Quattro  1999 manual(m5)    26
##  9 Audi         A4 Quattro  1999 auto(l5)      25
## 10 Audi         A4 Quattro  2008 manual(m6)    28
## #  with 224 more rows
…
We now need to separate out our Condition column into two - one for our first factor (Prime), and one for our second factor (Target). The separate() function does just this - when used in conjunction with a piped tibble, it needs to know which column we want to separate, what new columns to create by separating that original column, and on what basis we want to do the separation. In the example below we tell separate() that we want to separate the column labeled condition into two new columns called Prime and Target and we want to do this at any points where a _ is present in the column to be separated.

my_messy_data %>% 
  mutate(condition = recode(condition,
                            "1" = "PrimeA_TargetA",
                            "2" = "PrimeA_TargetB", 
                            "3" = "PrimeB_TargetA", 
                            "4" = "PrimeB_TargetB")) %>%
  separate(col = "condition", into = c("Prime", "Target"), sep = "_")

## # A tibble: 96 x 4
##    participant Prime  Target     rt
##          <dbl> <chr>  <chr>   <dbl>
##  1           1 PrimeA TargetA   879
##  2           1 PrimeA TargetB  1027
##  3           1 PrimeB TargetA  1108
##  4           1 PrimeB TargetB   765
##  5           2 PrimeA TargetA  1042
##  6           2 PrimeA TargetB  1050
##  7           2 PrimeB TargetA   942
##  8           2 PrimeB TargetB   945
##  9           3 PrimeA TargetA   943
## 10           3 PrimeA TargetB   910
## #  with 86 more rows

my_messy_data %>% 
  mutate(condition = recode(condition,
                            "1" = "PrimeA_TargetA",
                            "2" = "PrimeA_TargetB", 
                            "3" = "PrimeB_TargetA", 
                            "4" = "PrimeB_TargetB")) %>%
  separate(col = "condition", into = c("Prime", "Target"), sep = "_") %>%
  mutate(Prime = factor(Prime), Target = factor(Target))

## # A tibble: 96 x 4
##    participant Prime  Target     rt
##          <dbl> <fct>  <fct>   <dbl>
##  1           1 PrimeA TargetA   879
##  2           1 PrimeA TargetB  1027
##  3           1 PrimeB TargetA  1108
##  4           1 PrimeB TargetB   765
##  5           2 PrimeA TargetA  1042
##  6           2 PrimeA TargetB  1050
##  7           2 PrimeB TargetA   942
##  8           2 PrimeB TargetB   945
##  9           3 PrimeA TargetA   943
## 10           3 PrimeA TargetB   910
## #  with 86 more rows
…
This is looking better.

Adding columns using mutate()

We can add a new column that Im calling mean_hwy using the mutate() function like this.

mpg %>% 
  group_by(manufacturer) %>%
  mutate(mean_hwy = mean(hwy), sd_hwy = sd(hwy))

## # A tibble: 234 x 13
## # Groups:   manufacturer [15]
##    manufacturer model    displ  year   cyl trans   drv     cty   hwy fl    class
##    <chr>        <chr>    <dbl> <int> <int> <chr>   <chr> <int> <int> <chr> <chr>
##  1 audi         a4         1.8  1999     4 auto(l f        18    29 p     comp
##  2 audi         a4         1.8  1999     4 manual f        21    29 p     comp
##  3 audi         a4         2    2008     4 manual f        20    31 p     comp
##  4 audi         a4         2    2008     4 auto(a f        21    30 p     comp
##  5 audi         a4         2.8  1999     6 auto(l f        16    26 p     comp
##  6 audi         a4         2.8  1999     6 manual f        18    26 p     comp
##  7 audi         a4         3.1  2008     6 auto(a f        18    27 p     comp
##  8 audi         a4 quat   1.8  1999     4 manual 4        18    26 p     comp
##  9 audi         a4 quat   1.8  1999     4 auto(l 4        16    25 p     comp
## 10 audi         a4 quat   2    2008     4 manual 4        20    28 p     comp
## #  with 224 more rows, and 2 more variables: mean_hwy <dbl>, sd_hwy <dbl>

We have too many columns to display on this page so we can drop a coouple by using the select() function slightly differently. By putting a - sign in front of a column names in select() we end up dropping it.

mpg %>% 
  group_by(manufacturer) %>%
  mutate(mean_hwy = mean(hwy), sd_hwy = sd(hwy)) %>%
  select(-class, -trans)

## # A tibble: 234 x 11
## # Groups:   manufacturer [15]
##    manufacturer model  displ  year   cyl drv     cty   hwy fl    mean_hwy sd_hwy
##    <chr>        <chr>  <dbl> <int> <int> <chr> <int> <int> <chr>    <dbl>  <dbl>
##  1 audi         a4       1.8  1999     4 f        18    29 p         26.4   2.18
##  2 audi         a4       1.8  1999     4 f        21    29 p         26.4   2.18
##  3 audi         a4       2    2008     4 f        20    31 p         26.4   2.18
##  4 audi         a4       2    2008     4 f        21    30 p         26.4   2.18
##  5 audi         a4       2.8  1999     6 f        16    26 p         26.4   2.18
##  6 audi         a4       2.8  1999     6 f        18    26 p         26.4   2.18
##  7 audi         a4       3.1  2008     6 f        18    27 p         26.4   2.18
##  8 audi         a4 qu   1.8  1999     4 4        18    26 p         26.4   2.18
##  9 audi         a4 qu   1.8  1999     4 4        16    25 p         26.4   2.18
## 10 audi         a4 qu   2    2008     4 4        20    28 p         26.4   2.18
## #  with 224 more rows
…
